{
  "version": "1.0",
  "defaultProvider": "cdnjs",
  "libraries": [

    {
      "library": "admin-lte@2.4.18",
      "destination": "lib/admin-lte/"
    },
    {
      "library": "1000hz-bootstrap-validator@0.11.9",
      "destination": "lib/1000hz-bootstrap-validator/"
    },
    {
      "library": "twitter-bootstrap@3.4.1",
      "destination": "lib/twitter-bootstrap/"
    },
    {
      "library": "jquery@3.4.1",
      "destination": "lib/jquery/"
    },
    {
      "library": "font-awesome@5.10.2",
      "destination": "lib/font-awesome/"
    },
    {
      "library": "ionicons@4.5.6",
      "destination": "lib/ionicons/"
    },
    {
      "library": "eonasdan-bootstrap-datetimepicker@4.17.47",
      "destination": "lib/eonasdan-bootstrap-datetimepicker/"
    },
    {
      "library": "moment.js@2.24.0",
      "destination": "lib/moment.js/"
    }
  ]
}